<svg width="19" height="18" viewBox="0 0 19 18" version="1.1" xmlns="http://www.w3.org/2000/svg" xmlns:xlink="http://www.w3.org/1999/xlink">
<title>Search2</title>
<desc>Created using Figma</desc>
<g id="Canvas" transform="translate(-972 -247)">
<g id="Search2">
<use xlink:href="#path0_fill" transform="translate(972.25 247)" fill="#F7F7F7"/>
</g>
</g>
<defs>
<path id="path0_fill" fill-rule="evenodd" d="M 11.9296 6.07143C 11.9296 8.81409 9.54303 11.1429 6.46484 11.1429C 3.3866 11.1429 1 8.81409 1 6.07143C 1 3.32877 3.3866 1 6.46484 1C 9.54303 1 11.9296 3.32877 11.9296 6.07143ZM 10.6573 10.6932C 9.52856 11.5972 8.06451 12.1429 6.46484 12.1429C 2.89441 12.1429 0 9.42459 0 6.07143C 0 2.71828 2.89441 0 6.46484 0C 10.0353 0 12.9296 2.71828 12.9296 6.07143C 12.9296 7.57375 12.3486 8.94864 11.3862 10.0087L 18.4661 16.6577C 18.6674 16.8467 18.6674 17.1533 18.4661 17.3423C 18.2648 17.5313 17.9384 17.5313 17.7371 17.3423L 10.6573 10.6932Z"/>
</defs>
</svg>
